generated/CPUTop.vcd
$date
2024-11-15T18:40+0000
$end
$version
0.2
$end
$comment

$end
$timescale 1ns  $end
$scope module CPUTop $end
 $var wire 1 ! ControlUnit $end
 $var wire 32 # io_testerDataMemDataRead $end
 $var wire 10 1 _GEN_2 $end
 $var wire 1 2 _GEN_10 $end
 $var wire 4 4 _T $end
 $var wire 1 < io_testerDataMemWriteEnable $end
 $var wire 10 C _GEN_5 $end
 $var wire 10 P _GEN_8 $end
 $var wire 1 V io_testerProgMemEnable $end
 $var wire 1 l io_testerProgMemWriteEnable $end
 $var wire 32 m io_testerProgMemDataWrite $end
 $var wire 32 s io_testerDataMemDataWrite $end
 $var wire 10 u _GEN_7 $end
 $var wire 1 "$ io_testerDataMemEnable $end
 $var wire 10 "2 _GEN_4 $end
 $var wire 1 "6 clock $end
 $var wire 1 ": ProgramMemory $end
 $var wire 1 "D RegisterFile $end
 $var wire 1 "G ALU $end
 $var wire 16 "J io_testerDataMemAddress $end
 $var wire 1 "S DataMemory $end
 $var wire 1 "T io_done $end
 $var wire 1 "\ _GEN_11 $end
 $var wire 8 "j _GEN_6 $end
 $var wire 1 "t reset $end
 $var wire 8 "v _GEN_3 $end
 $var wire 1 "z ProgramCounter $end
 $var wire 16 #! io_testerProgMemAddress $end
 $var wire 1 #" io_run $end
 $var wire 32 ## io_testerProgMemDataRead $end
  $scope module DataMemory $end
   $var wire 32 % io_dataRead $end
   $var wire 1 & io_writeEnable $end
   $var wire 32 @ _GEN_11 $end
   $var wire 1 A io_testerWriteEnable $end
   $var wire 16 X io_address $end
   $var wire 32 Y io_testerDataWrite $end
   $var wire 32 [ _GEN_5 $end
   $var wire 1 n clock $end
   $var wire 16 "0 io_testerAddress $end
   $var wire 32 "4 memory $end
   $var wire 32 "P io_testerDataRead $end
   $var wire 32 "X io_dataWrite $end
   $var wire 1 #& io_testerEnable $end
    $scope module memory $end
      $scope module _T_3 $end
       $var wire 1 ' valid $end
       $var wire 16 R addr $end
       $var wire 32 S pipeline_data_0 $end
       $var wire 1 | clk $end
       $var wire 32 "- data $end
       $var wire 1 "; en $end
       $var wire 1 "I pipeline_valid_0 $end
       $var wire 16 "i pipeline_addr_0 $end
       $var wire 1 "~ mask $end
      $upscope $end
      $scope module _T_2 $end
       $var wire 16 - addr $end
       $var wire 1 : en $end
       $var wire 1 > clk $end
       $var wire 32 g data $end
      $upscope $end
      $scope module _T_1 $end
       $var wire 32 B data $end
       $var wire 32 ^ pipeline_data_0 $end
       $var wire 1 h pipeline_valid_0 $end
       $var wire 1 "9 en $end
       $var wire 1 "< mask $end
       $var wire 1 "@ valid $end
       $var wire 16 "p pipeline_addr_0 $end
       $var wire 16 "q addr $end
       $var wire 1 #) clk $end
      $upscope $end
      $scope module _T $end
       $var wire 16 H addr $end
       $var wire 1 W en $end
       $var wire 1 { clk $end
       $var wire 32 "* data $end
      $upscope $end
    $upscope $end
  $upscope $end
  $scope module RegisterFile $end
   $var wire 32 " _GEN_43 $end
   $var wire 32 $ _GEN_37 $end
   $var wire 4 ( io_writeSel $end
   $var wire 32 * io_b $end
   $var wire 32 , registers_1 $end
   $var wire 32 . registers_15 $end
   $var wire 32 / _GEN_22 $end
   $var wire 32 6 _GEN_5 $end
   $var wire 32 7 _GEN_10 $end
   $var wire 32 8 _GEN_19 $end
   $var wire 32 = _GEN_25 $end
   $var wire 32 E _GEN_8 $end
   $var wire 32 G _GEN_13 $end
   $var wire 32 I registers_12 $end
   $var wire 32 J registers_0 $end
   $var wire 32 K registers_9 $end
   $var wire 32 M _GEN_2 $end
   $var wire 12 N io_bSel $end
   $var wire 32 _ registers_3 $end
   $var wire 32 ` _GEN_30 $end
   $var wire 32 a _GEN_45 $end
   $var wire 32 b _GEN_39 $end
   $var wire 32 d _GEN_27 $end
   $var wire 32 f _GEN_12 $end
   $var wire 32 i _GEN_33 $end
   $var wire 1 p clock $end
   $var wire 32 q registers_6 $end
   $var wire 32 r registers_11 $end
   $var wire 32 t _GEN_36 $end
   $var wire 32 v io_a $end
   $var wire 32 w _GEN_1 $end
   $var wire 32 y _GEN_42 $end
   $var wire 32 } registers_14 $end
   $var wire 32 "! _GEN_21 $end
   $var wire 32 "% _GEN_4 $end
   $var wire 32 "' io_writeData $end
   $var wire 32 "( _GEN_18 $end
   $var wire 32 ") _GEN_24 $end
   $var wire 32 ". _GEN_7 $end
   $var wire 1 "5 io_writeEnable $end
   $var wire 4 "7 _T $end
   $var wire 32 "8 _GEN_41 $end
   $var wire 32 "= registers_8 $end
   $var wire 32 "B _GEN_35 $end
   $var wire 32 "E _GEN_17 $end
   $var wire 32 "F _GEN_44 $end
   $var wire 32 "M registers_2 $end
   $var wire 32 "O _GEN_38 $end
   $var wire 32 "Q _GEN_23 $end
   $var wire 32 "R _GEN_47 $end
   $var wire 12 "U io_aSel $end
   $var wire 32 "V _GEN_32 $end
   $var wire 32 "W _GEN_6 $end
   $var wire 32 "Y _GEN_26 $end
   $var wire 32 "[ _GEN_11 $end
   $var wire 32 "^ registers_5 $end
   $var wire 32 "_ registers_10 $end
   $var wire 32 "` _GEN_9 $end
   $var wire 32 "b registers_13 $end
   $var wire 32 "f _GEN_14 $end
   $var wire 32 "g _GEN_20 $end
   $var wire 32 "h _GEN_29 $end
   $var wire 32 "m _GEN_3 $end
   $var wire 32 "u _GEN_46 $end
   $var wire 32 "} registers_4 $end
   $var wire 32 #$ _GEN_28 $end
   $var wire 32 #% registers_7 $end
   $var wire 32 #( _GEN_40 $end
   $var wire 32 #* _GEN_34 $end
  $upscope $end
  $scope module ProgramMemory $end
   $var wire 1 ; clock $end
   $var wire 32 D memory $end
   $var wire 16 Z io_testerAddress $end
   $var wire 16 c io_address $end
   $var wire 32 j io_instructionRead $end
   $var wire 32 "1 io_testerDataWrite $end
   $var wire 1 "H io_testerWriteEnable $end
   $var wire 32 "k io_testerDataRead $end
   $var wire 32 "o _GEN_5 $end
   $var wire 1 "r io_testerEnable $end
    $scope module memory $end
      $scope module _T_2 $end
       $var wire 1 ) en $end
       $var wire 32 5 data $end
       $var wire 1 Q clk $end
       $var wire 16 "e addr $end
      $upscope $end
      $scope module _T $end
       $var wire 32 L data $end
       $var wire 1 e clk $end
       $var wire 1 "& en $end
       $var wire 16 "s addr $end
      $upscope $end
      $scope module _T_1 $end
       $var wire 1 k pipeline_valid_0 $end
       $var wire 1 o mask $end
       $var wire 16 ~ pipeline_addr_0 $end
       $var wire 1 "/ en $end
       $var wire 16 "> addr $end
       $var wire 1 "c valid $end
       $var wire 32 "n pipeline_data_0 $end
       $var wire 1 "x clk $end
       $var wire 32 "| data $end
      $upscope $end
    $upscope $end
  $upscope $end
  $scope module ALU $end
   $var wire 64 3 _GEN_1 $end
   $var wire 1 ] _T $end
   $var wire 32 x io_y $end
   $var wire 32 "" io_result $end
   $var wire 32 "+ _GEN_0 $end
   $var wire 1 "A io_zero $end
   $var wire 32 "d io_x $end
   $var wire 64 "y _GEN_2 $end
   $var wire 2 "{ io_sel $end
  $upscope $end
  $scope module ControlUnit $end
   $var wire 2 + _GEN_1 $end
   $var wire 1 0 _GEN_13 $end
   $var wire 2 9 _GEN_4 $end
   $var wire 1 ? io_regWriteEnable $end
   $var wire 1 F _T $end
   $var wire 2 O io_aluOp $end
   $var wire 2 \ _GEN_3 $end
   $var wire 2 z _GEN_0 $end
   $var wire 1 "? io_aluSrc $end
   $var wire 1 "C _GEN_14 $end
   $var wire 4 "K io_opCode $end
   $var wire 2 "L _GEN_2 $end
   $var wire 1 "Z io_memToReg $end
   $var wire 1 "a io_memWriteEnable $end
  $upscope $end
  $scope module ProgramCounter $end
   $var wire 16 T io_programCounterJump $end
   $var wire 16 U _GEN_1 $end
   $var wire 16 "# _GEN_0 $end
   $var wire 1 ", clock $end
   $var wire 16 "3 _T $end
   $var wire 16 "N io_programCounter $end
   $var wire 1 "] io_run $end
   $var wire 1 "l io_jump $end
   $var wire 1 "w io_stop $end
   $var wire 1 #' reset $end
  $upscope $end
$upscope $end
$enddefinitions $end
$dumpvars
b00000000000000000000000000000000 Y
b0000000000000000 H
1"<
0&
b0000000000 u
0"c
b0000000000000000 "0
b0000000000 C
b00000000000000000000000000000000 r
b00000000000000000000000000000000 "M
b00000000000000000000000000000000 "8
b00000000000000000000000000000000 "d
0V
b00000000000000000000000000000000 #*
b00000000000000000000000000000000 "4
0"x
b00000000000000000000000000000000 "`
b00000000000000000000000000000000 }
0#'
b00000000000000000000000000000000 `
b00000000000000000000000000000000 K
b00000000000000000000000000000000 6
b00000000000000000000000000000000 ".
b0000000000000000 "q
0"r
b00000000000000000000000000000000 w
b00000000000000000000000000000000 b
b0000000000 "2
0"@
b00000000000000000000000000000000 E
b00000000000000000000000000000000 #(
b0000000000000000 "N
b00000000000000000000000000000000 "*
0F
0":
0)
b000000000000 N
b00000000000000000000000000000000 s
0]
b00000000000000000000000000000000 "u
b00000000000000000000000000000000 $
b00000000000000000000000000000000 "X
b00000000000000000000000000000000 #$
b0000000000000000 "J
0W
b0000 "K
b00000000000000000000000000000000 "o
b00000000000000000000000000000000 "R
b00000000000000000000000000000000 "=
b00 "L
b0000 (
0"l
b00000000000000000000000000000000 q
0p
b0000000000000000 X
b00 \
0>
0!
b00000000000000000000000000000000 "k
b0000000000000000 Z
b0000000000000000 #!
b0000000000000000 "#
b00000000000000000000000000000000 m
0l
b0000000000000000 T
0"C
0:
b00000000000000000000000000000000 "g
0"w
0{
0"Z
0#&
0Q
b00000000000000000000000000000000 J
b0000000000000000 "p
b00000000000000000000000000000000 i
b0000000000000000 ">
b00000000000000000000000000000000 #%
0"?
b0000000000000000000000000000000000000000000000000000000000000000 "y
b00000000000000000000000000000000 /
b00000000000000000000000000000000 "1
00
0"$
b000000000000 "U
b00000000000000000000000000000000 "+
0?
b00 +
b00000000000000000000000000000000 "W
b0000000000000000 c
b00000000000000000000000000000000 t
b00000000000000000000000000000000 _
b00000000000000000000000000000000 "%
b00000000000000000000000000000000 B
0"T
b00000000000000000000000000000000 "'
b00000000000000000000000000000000 D
b0000 "7
0;
b00000000000000000000000000000000 [
0"9
b00000000000000000000000000000000 S
b00000000000000000000000000000000 "!
b0000000000000000 -
b00000000000000000000000000000000 j
0"H
0#)
b00000000000000000000000000000000 8
b00000000000000000000000000000000 #
b00 "{
b0000000000000000 "s
b00000000000000000000000000000000 "O
0k
b00000000000000000000000000000000 "f
b00000000000000000000000000000000 "Q
b0000000000000000000000000000000000000000000000000000000000000000 3
0"a
b00000000000000000000000000000000 f
b0000000000000000 U
b0000 4
0e
b00000000000000000000000000000000 I
0"D
b00000000000000000000000000000000 "}
b00000000000000000000000000000000 "h
0"/
0|
b0000000000 P
b00000000000000000000000000000000 .
0"z
b00000000000000000000000000000000 "b
b0000000000000000 "i
0"]
b00000000000000000000000000000000 "E
b00000000000000000000000000000000 M
b00000000000000000000000000000000 "(
0"t
b00000000000000000000000000000000 y
b00000000000000000000000000000000 d
b00000000000000000000000000000000 G
b00 O
b00000000000000000000000000000000 *
b00000000000000000000000000000000 "^
b0000000000000000 "e
b00000000000000000000000000000000 ^
b0000000000000000 "3
b00000000000000000000000000000000 ,
b0000000000 1
0"S
b00000000 "v
0"6
0n
0<
0'
b00000000000000000000000000000000 =
1"~
b00000000000000000000000000000000 ""
b00000000000000000000000000000000 7
b00000000000000000000000000000000 "
b00000000000000000000000000000000 "V
0"I
0",
b00000000000000000000000000000000 "m
b00 9
b00000000000000000000000000000000 "P
02
b00000000000000000000000000000000 "|
b00000000000000000000000000000000 g
b00000000000000000000000000000000 "-
b00000000000000000000000000000000 5
0h
0"\
0"G
b00000000000000000000000000000000 a
b00000000000000000000000000000000 L
b00000000 "j
b00000000000000000000000000000000 "[
b00000000000000000000000000000000 x
b0000000000000000 R
b00000000000000000000000000000000 "F
0"A
0#"
b00000000000000000000000000000000 ")
b0000000000000000 ~
1o
b00 z
0";
0"&
b00000000000000000000000000000000 @
b00000000000000000000000000000000 "_
b00000000000000000000000000000000 "B
b00000000000000000000000000000000 ##
0A
0"5
b00000000000000000000000000000000 %
b00000000000000000000000000000000 "n
b00000000000000000000000000000000 "Y
b00000000000000000000000000000000 v
$end
#0
1"A
1"t
1#'
1]
1:
1)
#1
1Q
1",
1"6
1"x
1e
1{
1p
1|
1#)
1>
1;
1n
#6
0Q
0",
0"6
0"x
0e
0{
0p
0|
0#)
0>
0;
0n
#11
1Q
1",
1"6
1"x
1e
1{
1p
1|
1#)
1>
1;
1n
#16
0Q
0",
0"6
0"x
0e
0{
0p
0|
0#)
0>
0;
0n
#21
1Q
1",
1"6
1"x
1e
1{
1p
1|
1#)
1>
1;
1n
#26
0Q
0",
0"6
0"x
0e
0{
0p
0|
0#)
0>
0;
0n
#31
1Q
1",
1"6
1"x
1e
1{
1p
1|
1#)
1>
1;
1n
#36
0Q
0",
0"6
0"x
0e
0{
0p
0|
0#)
0>
0;
0n
#41
1Q
1",
1"6
1"x
1e
1{
1p
1|
1#)
1>
1;
1n
#46
1"@
0Q
1<
0"t
0",
1"$
0p
0>
0"6
1#&
0"x
0e
0#'
1W
0{
0:
0|
1"9
1A
0#)
0;
0n
#51
1Q
1",
1"6
1"x
1h
1e
1{
1p
1|
1#)
1>
1;
1n
#56
0Q
0",
b0000000000000001 "J
0p
0>
b0000000000000001 "q
0"6
0"x
b0000000000000001 "0
0e
b0000000000000001 H
0{
0|
0#)
0;
0n
#61
b0000000000000001 "p
1Q
1",
1"6
1"x
1e
1{
1p
1|
1#)
1>
1;
1n
#66
0Q
0",
b0000000000000010 "J
0p
0>
b0000000000000010 "q
0"6
0"x
b0000000000000010 "0
0e
b0000000000000010 H
0{
0|
0#)
0;
0n
#71
b0000000000000010 "p
1Q
1",
1"6
1"x
1e
1{
1p
1|
1#)
1>
1;
1n
#76
0Q
0",
b0000000000000011 "J
0p
0>
b0000000000000011 "q
0"6
0"x
b0000000000000011 "0
0e
b0000000000000011 H
0{
0|
0#)
0;
0n
#81
b0000000000000011 "p
1Q
1",
1"6
1"x
1e
1{
1p
1|
1#)
1>
1;
1n
#86
0Q
0",
b0000000000000100 "J
0p
0>
b0000000000000100 "q
0"6
0"x
b0000000000000100 "0
0e
b0000000000000100 H
0{
0|
0#)
0;
0n
#91
b0000000000000100 "p
1Q
1",
1"6
1"x
1e
1{
1p
1|
1#)
1>
1;
1n
#96
0Q
0",
b0000000000000101 "J
0p
0>
b0000000000000101 "q
0"6
0"x
b0000000000000101 "0
0e
b0000000000000101 H
0{
0|
0#)
0;
0n
#101
b0000000000000101 "p
1Q
1",
1"6
1"x
1e
1{
1p
1|
1#)
1>
1;
1n
#106
0Q
0",
b0000000000000110 "J
0p
0>
b0000000000000110 "q
0"6
0"x
b0000000000000110 "0
0e
b0000000000000110 H
0{
0|
0#)
0;
0n
#111
b0000000000000110 "p
1Q
1",
1"6
1"x
1e
1{
1p
1|
1#)
1>
1;
1n
#116
0Q
0",
b0000000000000111 "J
0p
0>
b0000000000000111 "q
0"6
0"x
b0000000000000111 "0
0e
b0000000000000111 H
0{
0|
0#)
0;
0n
#121
b0000000000000111 "p
1Q
1",
1"6
1"x
1e
1{
1p
1|
1#)
1>
1;
1n
#126
0Q
0",
b0000000000001000 "J
0p
0>
b0000000000001000 "q
0"6
0"x
b0000000000001000 "0
0e
b0000000000001000 H
0{
0|
0#)
0;
0n
#131
b0000000000001000 "p
1Q
1",
1"6
1"x
1e
1{
1p
1|
1#)
1>
1;
1n
#136
0Q
0",
b0000000000001001 "J
0p
0>
b0000000000001001 "q
0"6
0"x
b0000000000001001 "0
0e
b0000000000001001 H
0{
0|
0#)
0;
0n
#141
b0000000000001001 "p
1Q
1",
1"6
1"x
1e
1{
1p
1|
1#)
1>
1;
1n
#146
0Q
0",
b0000000000001010 "J
0p
0>
b0000000000001010 "q
0"6
0"x
b0000000000001010 "0
0e
b0000000000001010 H
0{
0|
0#)
0;
0n
#151
b0000000000001010 "p
1Q
1",
1"6
1"x
1e
1{
1p
1|
1#)
1>
1;
1n
#156
0Q
0",
b0000000000001011 "J
0p
0>
b0000000000001011 "q
0"6
0"x
b0000000000001011 "0
0e
b0000000000001011 H
0{
0|
0#)
0;
0n
#161
b0000000000001011 "p
1Q
1",
1"6
1"x
1e
1{
1p
1|
1#)
1>
1;
1n
#166
0Q
0",
b0000000000001100 "J
0p
0>
b0000000000001100 "q
0"6
0"x
b0000000000001100 "0
0e
b0000000000001100 H
0{
0|
0#)
0;
0n
#171
b0000000000001100 "p
1Q
1",
1"6
1"x
1e
1{
1p
1|
1#)
1>
1;
1n
#176
0Q
0",
b0000000000001101 "J
0p
0>
b0000000000001101 "q
0"6
0"x
b0000000000001101 "0
0e
b0000000000001101 H
0{
0|
0#)
0;
0n
#181
b0000000000001101 "p
1Q
1",
1"6
1"x
1e
1{
1p
1|
1#)
1>
1;
1n
#186
0Q
0",
b0000000000001110 "J
0p
0>
b0000000000001110 "q
0"6
0"x
b0000000000001110 "0
0e
b0000000000001110 H
0{
0|
0#)
0;
0n
#191
b0000000000001110 "p
1Q
1",
1"6
1"x
1e
1{
1p
1|
1#)
1>
1;
1n
#196
0Q
0",
b0000000000001111 "J
0p
0>
b0000000000001111 "q
0"6
0"x
b0000000000001111 "0
0e
b0000000000001111 H
0{
0|
0#)
0;
0n
#201
b0000000000001111 "p
1Q
1",
1"6
1"x
1e
1{
1p
1|
1#)
1>
1;
1n
#206
0Q
0",
b0000000000010000 "J
0p
0>
b0000000000010000 "q
0"6
0"x
b0000000000010000 "0
0e
b0000000000010000 H
0{
0|
0#)
0;
0n
#211
b0000000000010000 "p
1Q
1",
1"6
1"x
1e
1{
1p
1|
1#)
1>
1;
1n
#216
0Q
0",
b0000000000010001 "J
0p
0>
b0000000000010001 "q
0"6
0"x
b0000000000010001 "0
0e
b0000000000010001 H
0{
0|
0#)
0;
0n
#221
b0000000000010001 "p
1Q
1",
1"6
1"x
1e
1{
1p
1|
1#)
1>
1;
1n
#226
0Q
0",
b0000000000010010 "J
0p
0>
b0000000000010010 "q
0"6
0"x
b0000000000010010 "0
0e
b0000000000010010 H
0{
0|
0#)
0;
0n
#231
b0000000000010010 "p
1Q
1",
1"6
1"x
1e
1{
1p
1|
1#)
1>
1;
1n
#236
0Q
0",
b0000000000010011 "J
0p
0>
b0000000000010011 "q
0"6
0"x
b0000000000010011 "0
0e
b0000000000010011 H
0{
0|
0#)
0;
0n
#241
b0000000000010011 "p
1Q
1",
1"6
1"x
1e
1{
1p
1|
1#)
1>
1;
1n
#246
0Q
0",
b0000000000010100 "J
0p
0>
b0000000000010100 "q
0"6
0"x
b0000000000010100 "0
0e
b0000000000010100 H
0{
0|
0#)
0;
0n
#251
b0000000000010100 "p
1Q
1",
1"6
1"x
1e
1{
1p
1|
1#)
1>
1;
1n
#256
0Q
0",
b0000000000010101 "J
0p
0>
b0000000000010101 "q
0"6
0"x
b0000000000010101 "0
0e
b0000000000010101 H
0{
0|
0#)
0;
0n
#261
b0000000000010101 "p
1Q
1",
1"6
1"x
1e
1{
1p
1|
1#)
1>
1;
1n
#266
0Q
0",
b0000000000010110 "J
0p
0>
b0000000000010110 "q
0"6
0"x
b0000000000010110 "0
0e
b0000000000010110 H
0{
0|
0#)
0;
0n
#271
b0000000000010110 "p
1Q
1",
1"6
1"x
1e
1{
1p
1|
1#)
1>
1;
1n
#276
0Q
0",
b0000000000010111 "J
0p
0>
b0000000000010111 "q
0"6
0"x
b0000000000010111 "0
0e
b0000000000010111 H
0{
0|
0#)
0;
0n
#281
b0000000000010111 "p
1Q
1",
1"6
1"x
1e
1{
1p
1|
1#)
1>
1;
1n
#286
0Q
0",
b0000000000011000 "J
0p
0>
b0000000000011000 "q
0"6
0"x
b0000000000011000 "0
0e
b0000000000011000 H
0{
0|
0#)
0;
0n
#291
b0000000000011000 "p
1Q
1",
1"6
1"x
1e
1{
1p
1|
1#)
1>
1;
1n
#296
0Q
0",
b0000000000011001 "J
0p
0>
b0000000000011001 "q
0"6
0"x
b0000000000011001 "0
0e
b0000000000011001 H
0{
0|
0#)
0;
0n
#301
b0000000000011001 "p
1Q
1",
1"6
1"x
1e
1{
1p
1|
1#)
1>
1;
1n
#306
0Q
0",
b0000000000011010 "J
0p
0>
b0000000000011010 "q
0"6
0"x
b0000000000011010 "0
0e
b0000000000011010 H
0{
0|
0#)
0;
0n
#311
b0000000000011010 "p
1Q
1",
1"6
1"x
1e
1{
1p
1|
1#)
1>
1;
1n
#316
0Q
0",
b0000000000011011 "J
0p
0>
b0000000000011011 "q
0"6
0"x
b0000000000011011 "0
0e
b0000000000011011 H
0{
0|
0#)
0;
0n
#321
b0000000000011011 "p
1Q
1",
1"6
1"x
1e
1{
1p
1|
1#)
1>
1;
1n
#326
0Q
0",
b0000000000011100 "J
0p
0>
b0000000000011100 "q
0"6
0"x
b0000000000011100 "0
0e
b0000000000011100 H
0{
0|
0#)
0;
0n
#331
b0000000000011100 "p
1Q
1",
1"6
1"x
1e
1{
1p
1|
1#)
1>
1;
1n
#336
0Q
0",
b0000000000011101 "J
0p
0>
b0000000000011101 "q
0"6
0"x
b0000000000011101 "0
0e
b0000000000011101 H
0{
0|
0#)
0;
0n
#341
b0000000000011101 "p
1Q
1",
1"6
1"x
1e
1{
1p
1|
1#)
1>
1;
1n
#346
0Q
0",
b0000000000011110 "J
0p
0>
b0000000000011110 "q
0"6
0"x
b0000000000011110 "0
0e
b0000000000011110 H
0{
0|
0#)
0;
0n
#351
b0000000000011110 "p
1Q
1",
1"6
1"x
1e
1{
1p
1|
1#)
1>
1;
1n
#356
0Q
0",
b0000000000011111 "J
0p
0>
b0000000000011111 "q
0"6
0"x
b0000000000011111 "0
0e
b0000000000011111 H
0{
0|
0#)
0;
0n
#361
b0000000000011111 "p
1Q
1",
1"6
1"x
1e
1{
1p
1|
1#)
1>
1;
1n
#366
0Q
0",
b0000000000100000 "J
0p
0>
b0000000000100000 "q
0"6
0"x
b0000000000100000 "0
0e
b0000000000100000 H
0{
0|
0#)
0;
0n
#371
b0000000000100000 "p
1Q
1",
1"6
1"x
1e
1{
1p
1|
1#)
1>
1;
1n
#376
0Q
0",
b0000000000100001 "J
0p
0>
b0000000000100001 "q
0"6
0"x
b0000000000100001 "0
0e
b0000000000100001 H
0{
0|
0#)
0;
0n
#381
b0000000000100001 "p
1Q
1",
1"6
1"x
1e
1{
1p
1|
1#)
1>
1;
1n
#386
0Q
0",
b0000000000100010 "J
0p
0>
b0000000000100010 "q
0"6
0"x
b0000000000100010 "0
0e
b0000000000100010 H
0{
0|
0#)
0;
0n
#391
b0000000000100010 "p
1Q
1",
1"6
1"x
1e
1{
1p
1|
1#)
1>
1;
1n
#396
0Q
0",
b0000000000100011 "J
0p
0>
b0000000000100011 "q
0"6
0"x
b0000000000100011 "0
0e
b0000000000100011 H
0{
0|
0#)
0;
0n
#401
b0000000000100011 "p
1Q
1",
1"6
1"x
1e
1{
1p
1|
1#)
1>
1;
1n
#406
0Q
0",
b0000000000100100 "J
0p
0>
b0000000000100100 "q
0"6
0"x
b0000000000100100 "0
0e
b0000000000100100 H
0{
0|
0#)
0;
0n
#411
b0000000000100100 "p
1Q
1",
1"6
1"x
1e
1{
1p
1|
1#)
1>
1;
1n
#416
0Q
0",
b0000000000100101 "J
0p
0>
b0000000000100101 "q
0"6
0"x
b0000000000100101 "0
0e
b0000000000100101 H
0{
0|
0#)
0;
0n
#421
b0000000000100101 "p
1Q
1",
1"6
1"x
1e
1{
1p
1|
1#)
1>
1;
1n
#426
0Q
0",
b0000000000100110 "J
0p
0>
b0000000000100110 "q
0"6
0"x
b0000000000100110 "0
0e
b0000000000100110 H
0{
0|
0#)
0;
0n
#431
b0000000000100110 "p
1Q
1",
1"6
1"x
1e
1{
1p
1|
1#)
1>
1;
1n
#436
0Q
0",
b0000000000100111 "J
0p
0>
b0000000000100111 "q
0"6
0"x
b0000000000100111 "0
0e
b0000000000100111 H
0{
0|
0#)
0;
0n
#441
b0000000000100111 "p
1Q
1",
1"6
1"x
1e
1{
1p
1|
1#)
1>
1;
1n
#446
0Q
0",
b0000000000101000 "J
0p
0>
b0000000000101000 "q
0"6
0"x
b0000000000101000 "0
0e
b0000000000101000 H
0{
0|
0#)
0;
0n
#451
b0000000000101000 "p
1Q
1",
1"6
1"x
1e
1{
1p
1|
1#)
1>
1;
1n
#456
0Q
0",
b0000000000101001 "J
0p
0>
b0000000000101001 "q
0"6
0"x
b0000000000101001 "0
0e
b0000000000101001 H
0{
0|
0#)
0;
0n
#461
b0000000000101001 "p
1Q
1",
1"6
1"x
1e
1{
1p
1|
1#)
1>
1;
1n
#466
0Q
0",
b0000000000101010 "J
0p
0>
b0000000000101010 "q
0"6
0"x
b0000000000101010 "0
0e
b0000000000101010 H
0{
0|
0#)
0;
0n
#471
b0000000000101010 "p
1Q
1",
1"6
1"x
1e
1{
1p
1|
1#)
1>
1;
1n
#476
0Q
0",
b0000000000101011 "J
0p
0>
b0000000000101011 "q
0"6
0"x
b0000000000101011 "0
0e
b0000000000101011 H
0{
0|
0#)
0;
0n
#481
b0000000000101011 "p
1Q
1",
1"6
1"x
1e
1{
1p
1|
1#)
1>
1;
1n
#486
0Q
0",
b0000000000101100 "J
0p
0>
b0000000000101100 "q
0"6
0"x
b0000000000101100 "0
0e
b0000000000101100 H
0{
0|
0#)
0;
0n
#491
b0000000000101100 "p
1Q
1",
1"6
1"x
1e
1{
1p
1|
1#)
1>
1;
1n
#496
0Q
0",
b0000000000101101 "J
0p
0>
b0000000000101101 "q
0"6
0"x
b0000000000101101 "0
0e
b0000000000101101 H
0{
0|
0#)
0;
0n
#501
b0000000000101101 "p
1Q
1",
1"6
1"x
1e
1{
1p
1|
1#)
1>
1;
1n
#506
0Q
0",
b0000000000101110 "J
0p
0>
b0000000000101110 "q
0"6
0"x
b0000000000101110 "0
0e
b0000000000101110 H
0{
0|
0#)
0;
0n
#511
b0000000000101110 "p
1Q
1",
1"6
1"x
1e
1{
1p
1|
1#)
1>
1;
1n
#516
0Q
0",
b0000000000101111 "J
0p
0>
b0000000000101111 "q
0"6
0"x
b0000000000101111 "0
0e
b0000000000101111 H
0{
0|
0#)
0;
0n
#521
b0000000000101111 "p
1Q
1",
1"6
1"x
1e
1{
1p
1|
1#)
1>
1;
1n
#526
0Q
0",
b0000000000110000 "J
0p
0>
b0000000000110000 "q
0"6
0"x
b0000000000110000 "0
0e
b0000000000110000 H
0{
0|
0#)
0;
0n
#531
b0000000000110000 "p
1Q
1",
1"6
1"x
1e
1{
1p
1|
1#)
1>
1;
1n
#536
0Q
0",
b0000000000110001 "J
0p
0>
b0000000000110001 "q
0"6
0"x
b0000000000110001 "0
0e
b0000000000110001 H
0{
0|
0#)
0;
0n
#541
b0000000000110001 "p
1Q
1",
1"6
1"x
1e
1{
1p
1|
1#)
1>
1;
1n
#546
0Q
0",
b0000000000110010 "J
0p
0>
b0000000000110010 "q
0"6
0"x
b0000000000110010 "0
0e
b0000000000110010 H
0{
0|
0#)
0;
0n
#551
b0000000000110010 "p
1Q
1",
1"6
1"x
1e
1{
1p
1|
1#)
1>
1;
1n
#556
0Q
0",
b0000000000110011 "J
0p
0>
b0000000000110011 "q
0"6
0"x
b0000000000110011 "0
0e
b0000000000110011 H
0{
0|
0#)
0;
0n
#561
b0000000000110011 "p
1Q
1",
1"6
1"x
1e
1{
1p
1|
1#)
1>
1;
1n
#566
0Q
0",
b0000000000110100 "J
0p
0>
b0000000000110100 "q
0"6
0"x
b0000000000110100 "0
0e
b0000000000110100 H
0{
0|
0#)
0;
0n
#571
b0000000000110100 "p
1Q
1",
1"6
1"x
1e
1{
1p
1|
1#)
1>
1;
1n
#576
0Q
0",
b0000000000110101 "J
0p
0>
b0000000000110101 "q
0"6
0"x
b0000000000110101 "0
0e
b0000000000110101 H
0{
0|
0#)
0;
0n
#581
b0000000000110101 "p
1Q
1",
1"6
1"x
1e
1{
1p
1|
1#)
1>
1;
1n
#586
0Q
0",
b0000000000110110 "J
0p
0>
b0000000000110110 "q
0"6
0"x
b0000000000110110 "0
0e
b0000000000110110 H
0{
0|
0#)
0;
0n
#591
b0000000000110110 "p
1Q
1",
1"6
1"x
1e
1{
1p
1|
1#)
1>
1;
1n
#596
0Q
0",
b0000000000110111 "J
0p
0>
b0000000000110111 "q
0"6
0"x
b0000000000110111 "0
0e
b0000000000110111 H
0{
0|
0#)
0;
0n
#601
b0000000000110111 "p
1Q
1",
1"6
1"x
1e
1{
1p
1|
1#)
1>
1;
1n
#606
0Q
0",
b0000000000111000 "J
0p
0>
b0000000000111000 "q
0"6
0"x
b0000000000111000 "0
0e
b0000000000111000 H
0{
0|
0#)
0;
0n
#611
b0000000000111000 "p
1Q
1",
1"6
1"x
1e
1{
1p
1|
1#)
1>
1;
1n
#616
0Q
0",
b0000000000111001 "J
0p
0>
b0000000000111001 "q
0"6
0"x
b0000000000111001 "0
0e
b0000000000111001 H
0{
0|
0#)
0;
0n
#621
b0000000000111001 "p
1Q
1",
1"6
1"x
1e
1{
1p
1|
1#)
1>
1;
1n
#626
0Q
0",
b0000000000111010 "J
0p
0>
b0000000000111010 "q
0"6
0"x
b0000000000111010 "0
0e
b0000000000111010 H
0{
0|
0#)
0;
0n
#631
b0000000000111010 "p
1Q
1",
1"6
1"x
1e
1{
1p
1|
1#)
1>
1;
1n
#636
0Q
0",
b0000000000111011 "J
0p
0>
b0000000000111011 "q
0"6
0"x
b0000000000111011 "0
0e
b0000000000111011 H
0{
0|
0#)
0;
0n
#641
b0000000000111011 "p
1Q
1",
1"6
1"x
1e
1{
1p
1|
1#)
1>
1;
1n
